Transformação de Dados
…
## `filter()`: outras funções úteis

**`between()`**

um atalho para `x >= ___ & x <= ___`, como:

--

```r
dplyr::filter(dados::voos, dplyr::between(mes, 1, 6))
```

```
## # A tibble: 166,158 x 19
##      ano   mes   dia horario_saida saida_programada atraso_saida horario_chegada
##    <int> <int> <int>         <int>            <int>        <dbl>           <int>
##  1  2013     1     1           517              515            2             830
##  2  2013     1     1           533              529            4             850
##  3  2013     1     1           542              540            2             923
##  4  2013     1     1           544              545           -1            1004
##  5  2013     1     1           554              600           -6             812
##  6  2013     1     1           554              558           -4             740
##  7  2013     1     1           555              600           -5             913
##  8  2013     1     1           557              600           -3             709
##  9  2013     1     1           557              600           -3             838
## 10  2013     1     1           558              600           -2             753
## # ... with 166,148 more rows, and 12 more variables: chegada_prevista <int>,
## #   atraso_chegada <dbl>, companhia_aerea <chr>, voo <int>, cauda <chr>,
## #   origem <chr>, destino <chr>, tempo_voo <dbl>, distancia <dbl>, hora <dbl>,
## #   minuto <dbl>, data_hora <dttm>
```
…
Essa função, ao contrário das duas últimas, não olha os valores (linhas) e sim as **colunas**. o primeiro argumento é o _dataset_ e os outros são as colunas para serem selecionadas.

--

Útil para reduzir _datasets_ de centenas de colunas em apenas algumas que são interessantes para você. e ainda ajuda a economizar memória RAM 😄

--

```r
dplyr::select(dados::voos, ano, companhia_aerea, origem, destino)
```

```
## # A tibble: 336,776 x 4
##      ano companhia_aerea origem destino
##    <int> <chr>           <chr>  <chr>  
##  1  2013 UA              EWR    IAH    
##  2  2013 UA              LGA    IAH    
##  3  2013 AA              JFK    MIA    
##  4  2013 B6              JFK    BQN    
##  5  2013 DL              LGA    ATL    
##  6  2013 UA              EWR    ORD    
##  7  2013 B6              EWR    FLL    
##  8  2013 EV              LGA    IAD    
##  9  2013 B6              JFK    MCO    
## 10  2013 AA              LGA    ORD    
## # ... with 336,766 more rows
```
…
